"";"abr";"abr-D";"fqr";"fqr-D";"dor";"dor-D";"vcmr";"vcmr-D";"biomr";"biomr-D";"usor";"usor-D"
"1";2,3307;1;6,0588;1;1,3659;1;4,554;1;6,5676;1;0,4926;1
"2";2,6393;1;3,3699;1;1,3518;1;3,2491;1;3,4166;1;0;0
"3";0,4931;1;2,321;1;0,5982;1;2,6067;1;2,6654;1;0,4926;1
"4";1,2563;1;2,2477;1;1,121;1;0;0;2,3392;1;0,4926;1
"5";8,9509;1;2,1467;1;1,2764;1;0;0;1,3871;1;0;0
"6";2,9148;1;1,6392;1;1,333;1;1,5244;1;1,4115;1;0;0
"7";0,2176;0;1,5634;1;0,2967;0;4,4399;1;1,8503;1;0;0
"8";1,9367;1;1,5594;1;1,2293;1;1,4317;1;1,4664;1;0;0
"9";0,821;1;1,4735;1;0,8431;1;1,25;0;1,5279;1;0;0
"10";0,0771;0;1,3593;1;0,1272;0;5,1208;1;1,6696;1;0;0
"11";0,2672;0;1,3143;1;0,3768;1;1,7925;1;1,5146;1;0;0
"12";0,7769;1;1,3127;1;0,829;1;1,3366;1;1,3618;1;0,4926;1
"13";0,1818;0;1,0973;1;0,292;0;3,5411;1;1,2787;1;0,4926;1
"14";0,5951;1;1,0902;1;0,6264;1;1,1739;0;1,1431;1;0,4926;1
"15";1,0414;1;1,0746;1;0,8949;1;2,1303;1;1,0693;1;0;0
"16";0,7411;1;0,9486;1;0,8148;1;0,9569;0;0,9511;1;0;0
"17";0,4353;1;0,8919;1;0,3721;1;2,1818;1;0,9389;1;0;0
"18";0,2672;0;0,8589;1;0,3862;1;0;0;0,9695;1;0;0
"19";0,6254;1;0,8508;1;0,7866;1;0;0;0,8651;1;0,4926;1
"20";0,1653;0;0,7559;1;0,2167;0;0,9064;0;0,8765;1;0,4926;1
"21";0,3774;0;0,7552;1;0,4946;1;0,9145;0;0,7953;1;0;0
"22";1,9974;1;0,7539;1;1,2152;1;0;0;0,5458;1;0,9852;1
"23";3,2591;1;0,7226;1;1,1964;1;0;0;0,4394;0;0;0
"24";0,4325;1;0,7101;1;0,4946;1;0;0;0,7391;1;0;0
"25";0,1433;0;0,7096;1;0,1931;0;0;0;0,8203;1;0;0
"26";1,0001;1;0,6986;1;0,3533;1;0;0;0,6311;1;0;0
"27";0,8403;1;0,6975;1;0,7348;1;1,3184;1;0,6527;1;0;0
"28";0,2121;0;0,6901;1;0,3109;0;0;0;0,7608;1;0;0
"29";0,2507;0;0,6832;1;0,1601;0;0,7691;0;0,7522;1;0;0
"30";0,6667;1;0,6627;1;0,6688;1;1,3052;1;0,6664;1;0;0
"31";0,4105;1;0,6604;1;0,4993;1;1,2931;0;0,6903;1;0;0
"32";0,2176;0;0,6506;1;0,3297;1;0,6166;0;0,7308;1;0;0
"33";0,2645;0;0,6343;1;0,3674;1;0,7253;0;0,6953;1;0;0
"34";0,2617;0;0,6142;1;0,3344;1;0,7674;0;0,6666;1;0,4926;1
"35";0,573;1;0,5617;1;0,65;1;0;0;0,554;1;0;0
"36";0,3251;0;0,56;1;0,4757;1;2,3258;1;0,5974;1;0,4926;1
"37";0,3416;0;0,5584;1;0,4522;1;0;0;0,5769;1;0;0
"38";0,0606;0;0,5557;1;0,0895;0;0,7817;0;0,6611;1;0;0
"39";0,4518;1;0,5517;1;0,4192;1;0;0;0,5478;1;0;0
"40";0,3003;0;0,5503;1;0,4286;1;1,7658;1;0,5815;1;0,4926;1
"41";0,1846;0;0,5454;1;0,2732;0;2,2314;1;0,6097;1;1,9704;1
"42";0,719;1;0,5438;1;0,7442;1;0,428;0;0,4976;0;0,4926;1
"43";0,8045;1;0,5272;1;0,8007;1;0,4476;0;0,4679;0;0;0
"44";0,2783;0;0,5221;1;0,358;1;0,5507;0;0,549;1;0,4926;1
"45";1,0028;1;0,5008;1;0,7159;1;0;0;0,4096;0;0;0
"46";0,3747;0;0,4805;0;0,4475;1;0,5042;0;0,485;0;0;0
"47";1,1268;1;0,4671;0;0,8525;1;0,3336;0;0,3592;0;0,9852;1
"48";0,5427;1;0,4643;0;0,6123;1;0,8838;0;0,4355;0;0;0
"49";0,1212;0;0,4578;0;0,1931;0;1,84;1;0,5149;1;1,4778;1
"50";0,4022;1;0,4498;0;0,2685;0;0;0;0,4411;0;0;0
"51";0,2287;0;0,4383;0;0,2449;0;0,8216;0;0,4627;0;0;0
"52";0,1102;0;0,4361;0;0,1696;0;0,5123;0;0,505;0;0;0
"53";0,0937;0;0,428;0;0,1319;0;0,5431;0;0,4904;0;0,4926;0
"54";0,0992;0;0,4267;0;0,1554;0;0;0;0,4838;0;0;0
"55";0,2094;0;0,425;0;0,2967;0;0,4792;0;0,4575;0;0,4926;1
"56";0,5565;1;0,4248;0;0,6076;1;0,8036;0;0,3943;0;0,4926;1
"57";0,2397;0;0,4096;0;0,2967;0;0,9172;0;0,4312;0;0;0
"58";0,0882;0;0,4077;0;0,1366;0;0,5079;0;0,4792;0;0,4926;0
"59";0,2755;0;0,3856;0;0,3862;1;0,4246;0;0,4015;0;0;0
"60";0,6529;1;0,3783;0;0,3203;1;0;0;0,3251;0;0;0
"61";0,146;0;0,3757;0;0,2402;0;0,4491;0;0,4067;0;0,4926;1
"62";0,4353;1;0,3662;0;0,4427;1;0,7625;0;0,3481;0;0;0
"63";0,2535;0;0,3638;0;0,3485;1;0,755;0;0,3704;0;0;0
"64";0,0826;0;0,36;0;0,1366;0;1,5529;1;0,4099;0;0;0
"65";0,0909;0;0,3585;0;0,1366;0;0,7909;0;0,4088;0;0;0
"66";0,1322;0;0,3554;0;0,2025;0;0,3258;0;0,396;0;0,4926;1
"67";0,3664;0;0,3537;0;0,292;0;0;0;0,3396;0;0;0
"68";0,2975;0;0,3496;0;0,2826;0;0;0;0,3515;0;0;0
"69";0,1901;0;0,3464;0;0,2308;0;0,7878;0;0,3659;0;0;0
"70";0,1763;0;0,343;0;0,2591;0;0;0;0,3596;0;0;0
"71";0,1818;0;0,3301;0;0,2167;0;0;0;0,3535;0;0;0
"72";0,1901;0;0,3296;0;0,1743;0;0;0;0,3421;0;0;0
"73";0,2507;0;0,3264;0;0,3533;1;0;0;0,3284;0;0,9852;1
"74";0,6199;1;0,3252;0;0,2638;0;0;0;0,2738;0;0,9852;1
"75";0,5152;1;0,3241;0;0,6123;1;0,6736;0;0,289;0;0,4926;1
"76";0,3857;0;0,3211;0;0,4663;1;0;0;0,2991;0;0,4926;1
"77";0,281;0;0,3207;0;0,3297;1;0,1594;0;0,34;0;0,4926;1
"78";0,438;1;0,3183;0;0,5888;1;0,3177;0;0,2938;0;0,4926;1
"79";0,394;0;0,3122;0;0,4333;1;0,2681;0;0,2847;0;0;0
"80";0,0468;0;0,3104;0;0,0754;0;0,417;0;0,3701;0;0;0
"81";0,394;0;0,3077;0;0,4145;1;0,3;0;0,2894;0;0,4926;1
"82";0,113;0;0,3062;0;0,146;0;0,3146;0;0,3361;0;0;0
"83";0,5179;1;0,3049;0;0,4757;1;0,317;0;0,2589;0;0;0
"84";0,5648;1;0,3041;0;0,4757;1;0,3004;0;0,2556;0;0,4926;1
"85";0,2617;0;0,303;0;0,3438;1;0;0;0,3122;0;0;0
"86";0,1074;0;0,3005;0;0,1743;0;0,3217;0;0,3325;0;1,9704;1
"87";0,0744;0;0,2998;0;0,1225;0;0,3282;0;0,3386;0;0;0
"88";0,5703;1;0,2976;0;0,5982;1;0;0;0,2508;0;0,4926;1
"89";0,3416;0;0,2972;0;0,4145;1;0,3574;0;0,2863;0;0;0
"90";0,0937;0;0,2934;0;0,1272;0;0;0;0,3279;0;0;0
"91";0,1818;0;0,2798;0;0,2167;0;0,2844;0;0,2926;0;0;0
"92";0,1984;0;0,2706;0;0,2214;0;0,5606;0;0,2714;0;0;0
"93";0,5593;1;0,2701;0;0,6312;1;0,1896;0;0,2201;0;0;0
"94";0,0661;0;0,2692;0;0,0848;0;0,6505;0;0,3048;0;0;0
"95";0,1984;0;0,2646;0;0,2685;0;0,2516;0;0,2699;0;0;0
"96";0,1791;0;0,2605;0;0,2449;0;0,2461;0;0,2641;0;0,9852;1
"97";0,4876;1;0,2594;0;0,5982;1;0;0;0,223;0;0,4926;1
"98";0,2893;0;0,2582;0;0,3156;1;0,2615;0;0,2544;0;0;0
"99";0,3885;0;0,256;0;0,4333;1;0,281;0;0,2278;0;0;0
"100";0,2369;0;0,2545;0;0,2072;0;0;0;0,2455;0;0;0
"101";0,0689;0;0,2499;0;0,1178;0;0,3072;0;0,2826;0;0;0
"102";0,0358;0;0,2479;0;0,0565;0;0,2398;0;0,2992;0;0,4926;0
"103";0,5565;1;0,246;0;0,5511;1;0;0;0,1938;0;0,4926;1
"104";0,2204;0;0,246;0;0,3203;1;0,1946;0;0,2381;0;0;0
"105";0,2617;0;0,2429;0;0,3627;1;0,5874;0;0,2298;0;0;0
"106";0,146;0;0,2428;0;0,2072;0;0;0;0,2516;0;0;0
"107";0,0964;0;0,2418;0;0,1601;0;0,3354;0;0,2696;0;0;0
"108";0,292;0;0,24;0;0,3014;0;0,42;0;0,2232;0;0;0
"109";0,1625;0;0,2374;0;0,2261;0;0,2411;0;0,2415;0;0;0
"110";0,2672;0;0,236;0;0,3909;1;0,18;0;0,2208;0;0;0
"111";0,1377;0;0,2348;0;0,1413;0;0;0;0,2409;0;0;0
"112";0,3251;0;0,231;0;0,4098;1;0,2095;0;0,2144;0;0;0
"113";0,4105;1;0,2307;0;0,5275;1;0,1974;0;0,1999;0;0;0
"114";0,416;1;0,2304;0;0,5511;1;0;0;0,1917;0;0;0
"115";0,3692;0;0,2283;0;0,3815;1;0;0;0,1997;0;0;0
"116";0,5978;1;0,2254;0;0,6783;1;0,1673;0;0,1694;0;0,4926;1
"117";0,1791;0;0,2239;0;0,2261;0;0,2253;0;0,2272;0;0;0
"118";0,0964;0;0,2192;0;0,1507;0;1,7053;1;0,2386;0;0,4926;0
"119";0,1267;0;0,2182;0;0,146;0;0;0;0,2313;0;0;0
"120";0,3334;0;0,2182;0;0,3391;1;0,197;0;0,1974;0;0;0
"121";0,3885;0;0,211;0;0,4616;1;0,1535;0;0,1775;0;0,4926;1
"122";0,0193;0;0,1942;0;0,033;0;1,9169;1;0,233;0;0,9852;1
"123";0,1212;0;0,1941;0;0,1837;0;0,6637;0;0,2027;0;0,4926;0
"124";0,2011;0;0,1937;0;0,2543;0;0,4108;0;0,1894;0;0;0
"125";0,1928;0;0,1935;0;0,2638;0;0,2021;0;0,1856;0;0,4926;1
"126";0,3471;0;0,1922;0;0,3485;1;0;0;0,1667;0;0;0
"127";0,3829;0;0,1892;0;0,3815;1;0,1924;0;0,1545;0;0,4926;1
"128";0,0661;0;0,1889;0;0,113;0;0,266;0;0,2127;0;0,9852;1
"129";0,0634;0;0,1887;0;0,1083;0;0,1845;0;0,2069;0;0;0
"130";0,0882;0;0,188;0;0,1413;0;0;0;0,2057;0;0;0
"131";0,0689;0;0,1815;0;0,0989;0;0,4912;0;0,2017;0;0,9852;1
"132";0,0606;0;0,1784;0;0,0801;0;0;0;0,2024;0;0,4926;0
"133";0,0909;0;0,1731;0;0,0754;0;0;0;0,1795;0;0;0
"134";0,3857;0;0,1729;0;0,4051;1;0,1062;0;0,137;0;0;0
"135";0,0826;0;0,1712;0;0,1225;0;0;0;0,1823;0;0;0
"136";0,0689;0;0,1711;0;0,113;0;0,186;0;0,1866;0;0;0
"137";0,1873;0;0,1696;0;0,2873;0;0,2051;0;0,1615;0;0,4926;1
"138";0,4711;1;0,1692;0;0,5605;1;0;0;0,1294;0;0;0
"139";0,2535;0;0,1685;0;0,3109;1;0;0;0,1515;0;0;0
"140";0,1625;0;0,1681;0;0,2261;0;0,1846;0;0,166;0;0;0
"141";0,6336;1;0,167;0;0,504;1;0;0;0,1082;0;0;0
"142";0,1653;0;0,167;0;0,2308;0;0,1889;0;0,1672;0;0;0
"143";0,1791;0;0,1656;0;0,1931;0;0,2922;0;0,1571;0;0;0
"144";0,5482;1;0,165;0;0,2732;0;0;0;0,1144;0;0;0
"145";0,2176;0;0,164;0;0,3014;0;0;0;0,1541;0;0;0
"146";0,0551;0;0,1629;0;0,0848;0;0,1624;0;0,1817;0;0;0
"147";0,3196;0;0,1623;0;0,2167;0;0;0;0,1372;0;0;0
"148";0,0386;0;0,1617;0;0,0612;0;0,2126;0;0,1825;0;0;0
"149";0,0634;0;0,1613;0;0,0942;0;0;0;0,1787;0;0;0
"150";0,0606;0;0,1595;0;0,1036;0;0,1654;0;0,1792;0;0;0
"151";0,0799;0;0,1567;0;0,1083;0;0,1685;0;0,1692;0;0;0
"152";0,022;0;0,1506;0;0,0377;0;0,2767;0;0,1778;0;0;0
"153";0,1708;0;0,1501;0;0,2543;0;0;0;0,15;0;0,4926;1
"154";0,1405;0;0,1497;0;0,1931;0;0,1395;0;0,1475;0;0;0
"155";0,1956;0;0,1489;0;0,2591;0;0,138;0;0,138;0;0,4926;1
"156";0,0909;0;0,1472;0;0,1272;0;0,1669;0;0,1549;0;0;0
"157";0,0468;0;0,1466;0;0,0707;0;0,4327;0;0,1628;0;0;0
"158";0,2562;0;0,1466;0;0,2685;0;0;0;0,1263;0;0;0
"159";0,5703;1;0,1438;0;0,6264;1;0;0;0,1097;0;0;0
"160";0,1708;0;0,1423;0;0,179;0;0;0;0,1341;0;0;0
"161";0,2039;0;0,138;0;0,2873;0;0,1397;0;0,1274;0;0;0
"162";0,3499;0;0,1344;0;0,3768;1;0;0;0,1014;0;0;0
"163";0,2259;0;0,1326;0;0,2826;0;0;0;0,1138;0;0;0
"164";0,1598;0;0,1325;0;0,212;0;0;0;0,1228;0;0;0
"165";0,1322;0;0,1306;0;0,212;0;0,1375;0;0,1279;0;0,4926;1
"166";0,2397;0;0,1295;0;0,3485;1;0,1239;0;0,1104;0;0,4926;1
"167";0,259;0;0,1295;0;0,3344;1;0;0;0,1087;0;0;0
"168";0,0083;0;0,1255;0;0,0141;0;0,1206;0;0,1517;0;0;0
"169";0,2893;0;0,1245;0;0,3956;1;0;0;0,1019;0;0;0
"170";0,0661;0;0,1241;0;0,0895;0;0;0;0,1329;0;0;0
"171";0,1102;0;0,1229;0;0,1696;0;0,1114;0;0,1206;0;0;0
"172";0,2424;0;0,1218;0;0,325;1;0;0;0,105;0;0;0
"173";0,1212;0;0,1215;0;0,1696;0;0,1127;0;0,1148;0;0,4926;0
"174";0,3719;0;0,121;0;0,4946;1;0,0676;0;0,0854;0;0;0
"175";0,0441;0;0,119;0;0,0659;0;0,133;0;0,1277;0;0;0
"176";0,2204;0;0,118;0;0,2638;0;0,314;0;0,1048;0;0,4926;1
"177";0,1047;0;0,1173;0;0,1696;0;0,2448;0;0,1173;0;0;0
"178";0,1488;0;0,1163;0;0,212;0;0,1406;0;0,1076;0;0;0
"179";0,2479;0;0,1148;0;0,2967;0;0;0;0,094;0;0;0
"180";0,0854;0;0,1135;0;0,1083;0;0,1351;0;0,1146;0;0,4926;0
"181";0,0964;0;0,1133;0;0,1413;0;0,0993;0;0,1117;0;0;0
"182";0,0468;0;0,1131;0;0,0612;0;0;0;0,1256;0;0;0
"183";0,157;0;0,1114;0;0,2261;0;0;0;0,1019;0;0;0
"184";0,0689;0;0,1108;0;0,113;0;0;0;0,1142;0;0,4926;0
"185";0,0441;0;0,1102;0;0,0518;0;0,1602;0;0,1198;0;0,9852;1
"186";0,0358;0;0,1099;0;0,0565;0;0,1006;0;0,1221;0;0;0
"187";0,0358;0;0,1094;0;0,0612;0;0,2537;0;0,1206;0;0;0
"188";0,0248;0;0,1089;0;0,0424;0;0,0994;0;0,1241;0;0;0
"189";0,0744;0;0,1071;0;0,1272;0;0;0;0,1097;0;0,4926;0
"190";0,2149;0;0,1067;0;0,2967;0;0;0;0,0858;0;0;0
"191";0,3719;0;0,1067;0;0,3203;1;0;0;0,0722;0;0;0
"192";0,011;0;0,1059;0;0,0188;0;0;0;0,1249;0;0;0
"193";0,0468;0;0,1054;0;0,0659;0;0;0;0,1137;0;0;0
"194";0,0358;0;0,1053;0;0,0612;0;0;0;0,1147;0;0;0
"195";0,0193;0;0,104;0;0,0283;0;0,1496;0;0,1202;0;0,4926;0
"196";0,011;0;0,1036;0;0,0141;0;0,1471;0;0,1235;0;0,4926;0
"197";0,0689;0;0,1035;0;0,0942;0;0;0;0,112;0;0,4926;0
"198";0,0358;0;0,1025;0;0,0565;0;0,133;0;0,1121;0;0,4926;0
"199";0,1267;0;0,1023;0;0,2072;0;0,2224;0;0,0957;0;0,4926;0
"200";0,135;0;0,102;0;0,1601;0;0,185;0;0,0947;0;0,4926;1
"201";0,1928;0;0,1009;0;0,2732;0;0,182;0;0,0861;0;0;0
"202";0,1322;0;0,1004;0;0,1649;0;0,4124;0;0,0954;0;0,4926;1
"203";0,2948;0;0,0998;0;0,3391;1;0,2321;0;0,0722;0;0;0
"204";0,0661;0;0,0998;0;0,1036;0;0,1196;0;0,1029;0;0;0
"205";0,0496;0;0,0996;0;0,0754;0;0;0;0,1059;0;0;0
"206";0,0992;0;0,0996;0;0,1366;0;0,1003;0;0,0958;0;0,4926;0
"207";0,2893;0;0,0993;0;0,3156;1;0,0578;0;0,0713;0;0;0
"208";0,0992;0;0,0992;0;0,1413;0;0,1817;0;0,0964;0;1,4778;1
"209";0,1763;0;0,0984;0;0,1743;0;0,1671;0;0,0842;0;0;0
"210";0,124;0;0,0982;0;0,0895;0;0;0;0,0912;0;0;0
"211";0,1047;0;0,0971;0;0,1601;0;0,0766;0;0,0905;0;0;0
"212";0,0634;0;0,0953;0;0,0895;0;0;0;0,095;0;0;0
"213";0,0496;0;0,0953;0;0,0848;0;0;0;0,1031;0;0;0
"214";0,1984;0;0,0944;0;0,2402;0;0,1597;0;0,0783;0;0;0
"215";0,0523;0;0,0941;0;0,0754;0;0;0;0,1015;0;0;0
"216";0,0275;0;0,0934;0;0,0471;0;0;0;0,1054;0;0;0
"217";0,0441;0;0,0931;0;0,0659;0;0,1016;0;0,0999;0;0,4926;0
"218";0,0634;0;0,0924;0;0,0848;0;0;0;0,0972;0;0;0
"219";0,1047;0;0,0911;0;0,1413;0;0,0737;0;0,088;0;0;0
"220";0,113;0;0,0911;0;0,1601;0;0;0;0,0852;0;0;0
"221";0,0468;0;0,0909;0;0,0754;0;0;0;0,0978;0;0,9852;1
"222";0,0551;0;0,0906;0;0,0942;0;0,0843;0;0,0996;0;0;0
"223";0,0055;0;0,09;0;0,0047;0;0,4481;0;0,1114;0;0,9852;1
"224";0,1956;0;0,09;0;0,2873;0;0,0617;0;0,0729;0;0;0
"225";0,1074;0;0,0891;0;0,1413;0;0,0928;0;0,0828;0;0;0
"226";0,0275;0;0,0872;0;0,0471;0;0,0673;0;0,0959;0;0,4926;0
"227";0,0468;0;0,0858;0;0,0754;0;0,1833;0;0,0904;0;0;0
"228";0,1185;0;0,0854;0;0,0801;0;0,0747;0;0,0776;0;0;0
"229";0,1901;0;0,085;0;0,2685;0;0;0;0,0677;0;0;0
"230";0,1984;0;0,083;0;0,212;0;0;0;0,0639;0;0;0
"231";0,1984;0;0,0827;0;0,0283;0;0;0;0,0612;0;0;0
"232";0,0413;0;0,0821;0;0,0659;0;0;0;0,0896;0;0;0
"233";0,0468;0;0,0815;0;0,0754;0;0,0865;0;0,0837;0;0;0
"234";0,0468;0;0,0805;0;0,0518;0;0;0;0,0834;0;0;0
"235";0,2287;0;0,08;0;0,2732;0;0,0564;0;0,0586;0;0,4926;1
"236";0,0744;0;0,0799;0;0,0895;0;0,071;0;0,0778;0;0,4926;0
"237";0,1295;0;0,079;0;0,2025;0;0;0;0,0702;0;0;0
"238";0,0275;0;0,0781;0;0,0377;0;0;0;0,0857;0;0;0
"239";0,0854;0;0,077;0;0,1225;0;0;0;0,0758;0;0;0
"240";0,281;0;0,0769;0;0,3674;1;0,0529;0;0,0519;0;0;0
"241";0,0386;0;0,0765;0;0,0659;0;0;0;0,0827;0;0;0
"242";0,0964;0;0,0743;0;0,1413;0;0,0756;0;0,0689;0;0;0
"243";0,0275;0;0,0741;0;0,0377;0;0;0;0,0793;0;0;0
"244";0,1681;0;0,074;0;0,2261;0;0;0;0,0604;0;0,4926;1
"245";0,0468;0;0,0736;0;0,0801;0;0;0;0,0764;0;0;0
"246";0,0138;0;0,0733;0;0,0236;0;0;0;0,0848;0;0;0
"247";0,0882;0;0,0732;0;0,1366;0;0;0;0,0684;0;0;0
"248";0,0275;0;0,0726;0;0,0471;0;0,0893;0;0,0786;0;0;0
"249";0,1846;0;0,0713;0;0,2779;0;0,0577;0;0,0558;0;0;0
"250";0,0441;0;0,0712;0;0,0659;0;0;0;0,0733;0;0;0
"251";0,011;0;0,0711;0;0,0188;0;0,0891;0;0,0843;0;0;0
"252";0,0331;0;0,0706;0;0,0471;0;0;0;0,0738;0;0;0
"253";0,0606;0;0,0705;0;0,0895;0;0;0;0,07;0;0;0
"254";0,0358;0;0,0693;0;0,0424;0;0,078;0;0,074;0;0;0
"255";0,1928;0;0,0687;0;0,1743;0;0;0;0,0509;0;0,9852;1
"256";0,1956;0;0,0684;0;0,2732;0;0,0458;0;0,0514;0;0;0
"257";0,0331;0;0,068;0;0,0471;0;0;0;0,073;0;0;0
"258";0,0744;0;0,0675;0;0,1225;0;0,0709;0;0,0648;0;0;0
"259";0,135;0;0,0671;0;0,1931;0;0;0;0,0544;0;0;0
"260";0,0331;0;0,066;0;0,0565;0;0;0;0,0707;0;0;0
"261";0,0744;0;0,066;0;0,1036;0;0;0;0,0648;0;0;0
"262";0,1818;0;0,0658;0;0,2449;0;0;0;0,0484;0;0;0
"263";0,0496;0;0,0655;0;0,0801;0;0,1446;0;0,0664;0;0;0
"264";0,0496;0;0,0654;0;0,0848;0;0,0666;0;0,0701;0;0;0
"265";0,1377;0;0,0651;0;0,1978;0;0,1555;0;0,0545;0;0;0
"266";0,0386;0;0,065;0;0,0565;0;0;0;0,069;0;0;0
"267";0,1019;0;0,0649;0;0,1272;0;0,1089;0;0,0578;0;0;0
"268";0,0771;0;0,0644;0;0,0754;0;0;0;0,059;0;0;0
"269";0,0964;0;0,064;0;0,1319;0;0,0604;0;0,0573;0;0;0
"270";0,1488;0;0,0633;0;0,1978;0;0,0403;0;0,0498;0;0;0
"271";0,011;0;0,0633;0;0,0188;0;0;0;0,0726;0;0;0
"272";0,0413;0;0,0629;0;0,0659;0;0;0;0,0635;0;0,4926;0
"273";0,0413;0;0,0628;0;0,0518;0;0,0755;0;0,0648;0;0,4926;0
"274";0,0441;0;0,0627;0;0,0659;0;0,0549;0;0,0647;0;0,9852;1
"275";0,011;0;0,0624;0;0,0188;0;0;0;0,073;0;0;0
"276";0,1598;0;0,0624;0;0,1978;0;0;0;0,0472;0;0;0
"277";0,0826;0;0,0618;0;0,113;0;0,0558;0;0,056;0;0,4926;0
"278";0,011;0;0,0615;0;0,0188;0;0;0;0,0699;0;0;0
"279";0,0055;0;0,0606;0;0,0094;0;0;0;0,072;0;0;0
"280";0,0441;0;0,0597;0;0,0707;0;0,0596;0;0,0628;0;0;0
"281";0,0275;0;0,0596;0;0,0377;0;0,0862;0;0,0634;0;0;0
"282";0,2204;0;0,0595;0;0,3109;1;0,0439;0;0,0396;0;0;0
"283";0,0248;0;0,0593;0;0,033;0;0,164;0;0,064;0;0;0
"284";0,0579;0;0,0592;0;0,0989;0;0;0;0,0553;0;0,4926;0
"285";0,2727;0;0,0592;0;0,3485;1;0,0292;0;0,0354;0;0;0
"286";0,011;0;0,0584;0;0,0188;0;0,082;0;0,0687;0;0,4926;0
"287";0,0992;0;0,0576;0;0,1366;0;0;0;0,0496;0;0;0
"288";0,0248;0;0,0575;0;0,0424;0;0;0;0,0625;0;0;0
"289";0,0413;0;0,057;0;0,0612;0;0,0654;0;0,0587;0;0;0
"290";0,022;0;0,0553;0;0,033;0;0;0;0,0594;0;0;0
"291";0,0193;0;0,0552;0;0,033;0;0,1059;0;0,0636;0;0;0
"292";0,1653;0;0,0549;0;0,212;0;0,0356;0;0,0399;0;0,4926;1
"293";0,0523;0;0,0548;0;0,0659;0;0,0572;0;0,0542;0;0;0
"294";0,022;0;0,0548;0;0,033;0;0;0;0,0599;0;0;0
"295";0,1295;0;0,0548;0;0,146;0;0,0453;0;0,0432;0;0,4926;0
"296";0,0413;0;0,0541;0;0,0659;0;0;0;0,0545;0;0;0
"297";0,1653;0;0,0529;0;0,2072;0;0;0;0,0366;0;0;0
"298";0,0661;0;0,0529;0;0,0895;0;0,1386;0;0,049;0;0,4926;0
"299";0,0358;0;0,0521;0;0,0612;0;0;0;0,0517;0;0;0
"300";0,1818;0;0,0506;0;0,2308;0;0,0308;0;0,0363;0;0;0
"301";0,0055;0;0,0504;0;0,0047;0;0,3596;0;0,0593;0;0;0
"302";0,0386;0;0,0499;0;0,0283;0;0;0;0,0511;0;0;0
"303";0,0771;0;0,0499;0;0,0989;0;0;0;0,0454;0;0;0
"304";0,0358;0;0,0498;0;0,0565;0;0;0;0,0493;0;0;0
"305";0,1653;0;0,0494;0;0,1743;0;0;0;0,0348;0;0;0
"306";0,0634;0;0,0492;0;0,0989;0;0;0;0,0456;0;0;0
"307";0,0248;0;0,0492;0;0,033;0;0,0672;0;0,0521;0;0;0
"308";0,0083;0;0,0491;0;0,0141;0;0;0;0,0576;0;0;0
"309";0,0551;0;0,0491;0;0,0848;0;0;0;0,0463;0;0;0
"310";0,0579;0;0,0491;0;0,0848;0;0;0;0,0471;0;0;0
"311";0,0193;0;0,0486;0;0,033;0;0,0405;0;0,0526;0;0,4926;0
"312";0,0689;0;0,0481;0;0,0565;0;0,0498;0;0,0441;0;0,4926;0
"313";0,113;0;0,048;0;0,1743;0;0;0;0,038;0;0;0
"314";0,0165;0;0,0476;0;0,0236;0;0;0;0,0521;0;0,4926;0
"315";0,0165;0;0,0473;0;0,0188;0;0,0635;0;0,0517;0;0;0
"316";0,157;0;0,047;0;0,2025;0;0,0269;0;0,0325;0;0,4926;1
"317";0,157;0;0,0466;0;0,212;0;0,0261;0;0,0317;0;0;0
"318";0,0386;0;0,0465;0;0,0471;0;0;0;0,0478;0;0;0
"319";0,0055;0;0,0463;0;0,0094;0;0;0;0,054;0;0;0
"320";0,1212;0;0,0461;0;0,1366;0;0;0;0,0346;0;0,4926;0
"321";0,0496;0;0,0455;0;0,0848;0;0,0542;0;0,0444;0;0;0
"322";0,124;0;0,0454;0;0,1884;0;0;0;0,0331;0;0;0
"323";0,0275;0;0,0451;0;0,0471;0;0,1576;0;0,0469;0;0;0
"324";0,0579;0;0,045;0;0,0989;0;0,0881;0;0,0405;0;0;0
"325";0,1185;0;0,0445;0;0,1601;0;0;0;0,0337;0;0;0
"326";0,0854;0;0,0445;0;0,1083;0;0;0;0,0365;0;0;0
"327";0,1047;0;0,0443;0;0,1696;0;0;0;0,036;0;0;0
"328";0,0138;0;0,0439;0;0,0141;0;0;0;0,0487;0;0;0
"329";0,0468;0;0,0438;0;0,0565;0;0;0;0,0406;0;0;0
"330";0,2314;0;0,0436;0;0,2967;0;0;0;0,0243;0;0,4926;1
"331";0,1185;0;0,0433;0;0,1696;0;0,0284;0;0,0316;0;0;0
"332";0,1212;0;0,0432;0;0,1554;0;0;0;0,032;0;0;0
"333";0,2149;0;0,0431;0;0,2449;0;0;0;0,0252;0;0;0
"334";0,0193;0;0,043;0;0,0188;0;0;0;0,0456;0;0;0
"335";0,146;0;0,0427;0;0,212;0;0;0;0,03;0;0;0
"336";0,1598;0;0,0425;0;0,2025;0;0;0;0,0285;0;0;0
"337";0,0689;0;0,0422;0;0,1083;0;0,0442;0;0,038;0;0,4926;0
"338";0,0165;0;0,0421;0;0,0283;0;0,0484;0;0,0484;0;0;0
"339";0,0551;0;0,0402;0;0,0895;0;0,0431;0;0,0369;0;0;0
"340";0,0771;0;0,0394;0;0,0942;0;0;0;0,0315;0;0;0
"341";0,0083;0;0,0394;0;0,0141;0;0,0495;0;0,0452;0;0;0
"342";0,0964;0;0,0392;0;0,1225;0;0,0344;0;0,0299;0;0,4926;0
"343";0,0799;0;0,0392;0;0,0989;0;0;0;0,032;0;0;0
"344";0,0496;0;0,0389;0;0,0754;0;0,0349;0;0,0366;0;0;0
"345";0,124;0;0,0388;0;0,1601;0;0;0;0,0276;0;0,4926;0
"346";0,1212;0;0,0386;0;0,1507;0;0;0;0,028;0;0;0
"347";0,0055;0;0,0383;0;0,0094;0;0,0364;0;0,0442;0;0;0
"348";0,0634;0;0,0383;0;0,1036;0;0;0;0,0326;0;0;0
"349";0,0909;0;0,0379;0;0,1366;0;0;0;0,0289;0;0;0
"350";0,0275;0;0,0377;0;0,0471;0;0;0;0,0376;0;0;0
"351";0,0634;0;0,0376;0;0,1083;0;0,027;0;0,0336;0;0,4926;0
"352";0,0882;0;0,0372;0;0,1225;0;0;0;0,0297;0;0;0
"353";0,0523;0;0,0368;0;0,0848;0;0;0;0,0328;0;0;0
"354";0,0496;0;0,0366;0;0,0612;0;0;0;0,0338;0;0;0
"355";0,0386;0;0,0362;0;0,0518;0;0;0;0,0342;0;0;0
"356";0,0854;0;0,0359;0;0,1272;0;0,0329;0;0,0272;0;0;0
"357";0,0055;0;0,0358;0;0,0094;0;0,1083;0;0,0417;0;0;0
"358";0,0523;0;0,0357;0;0,0659;0;0;0;0,0345;0;0;0
"359";0,113;0;0,0356;0;0,1743;0;0;0;0,0258;0;0,9852;1
"360";0,0303;0;0,0355;0;0,0518;0;0,0375;0;0,035;0;0,4926;0
"361";0,0771;0;0,0355;0;0,1083;0;0;0;0,0289;0;0;0
"362";0,022;0;0,0354;0;0,0377;0;0;0;0,0377;0;0;0
"363";0,022;0;0,0354;0;0,0283;0;0;0;0,0357;0;0;0
"364";0,0083;0;0,0354;0;0,0141;0;0;0;0,0401;0;0;0
"365";0,0303;0;0,035;0;0,0518;0;0,0489;0;0,034;0;0;0
"366";0,0386;0;0,035;0;0,0565;0;0;0;0,0328;0;0,4926;0
"367";0,0551;0;0,0346;0;0,0848;0;0;0;0,031;0;0;0
"368";0,0193;0;0,0345;0;0,033;0;0,0222;0;0,0373;0;0,4926;0
"369";0,0634;0;0,0344;0;0,0895;0;0;0;0,0304;0;0;0
"370";0,0028;0;0,0342;0;0,0047;0;0;0;0,0409;0;0;0
"371";0,0028;0;0,0342;0;0,0047;0;0;0;0,0409;0;0;0
"372";0,0248;0;0,0342;0;0,0424;0;0,0458;0;0,0357;0;0,4926;0
"373";0,0634;0;0,0341;0;0,0518;0;0;0;0,0288;0;0;0
"374";0,0358;0;0,034;0;0,0565;0;0;0;0,0323;0;0;0
"375";0,0248;0;0,034;0;0,0424;0;0;0;0,034;0;0;0
"376";0,0661;0;0,0338;0;0,1036;0;0;0;0,0297;0;0;0
"377";0,0138;0;0,0335;0;0,0188;0;0;0;0,0362;0;0;0
"378";0,0193;0;0,0335;0;0,033;0;0;0;0,0343;0;0;0
"379";0,0937;0;0,0333;0;0,1036;0;0,0228;0;0,0252;0;0,4926;0
"380";0,1405;0;0,033;0;0,1743;0;0,0181;0;0,0205;0;0;0
"381";0,0826;0;0,0328;0;0,1225;0;0;0;0,0248;0;0;0
"382";0,0882;0;0,0326;0;0,1083;0;0,0193;0;0,0239;0;0;0
"383";0,0275;0;0,0321;0;0,0471;0;0,047;0;0,0329;0;0;0
"384";0,0165;0;0,0321;0;0,0188;0;0;0;0,0333;0;0;0
"385";0,1157;0;0,0315;0;0,1743;0;0,0187;0;0,0212;0;0;0
"386";0,0165;0;0,0315;0;0,0283;0;0,0862;0;0,0325;0;0;0
"387";0,022;0;0,0313;0;0,0377;0;0;0;0,031;0;0;0
"388";0,011;0;0,0309;0;0,0188;0;0;0;0,0333;0;0;0
"389";0,0165;0;0,0301;0;0,0283;0;0;0;0,0316;0;0;0
"390";0,0661;0;0,03;0;0,0518;0;0,0256;0;0,024;0;0;0
"391";0,0165;0;0,0297;0;0,0188;0;0,0327;0;0,0306;0;0;0
"392";0,0523;0;0,0297;0;0,0895;0;0;0;0,0266;0;0;0
"393";0,0606;0;0,0292;0;0,0801;0;0,0262;0;0,0249;0;0;0
"394";0,0799;0;0,0292;0;0,1036;0;0,0193;0;0,0219;0;0;0
"395";0,0413;0;0,0289;0;0,0471;0;0;0;0,0272;0;0,4926;0
"396";0,0413;0;0,0288;0;0,0471;0;0,0225;0;0,0259;0;0,4926;0
"397";0,1267;0;0,0287;0;0,1601;0;0;0;0,0174;0;0;0
"398";0,022;0;0,0287;0;0,033;0;0;0;0,029;0;0;0
"399";0,0551;0;0,0286;0;0,0707;0;0,0245;0;0,024;0;0;0
"400";0,0909;0;0,0286;0;0,1272;0;0;0;0,0197;0;0;0
"401";0,0634;0;0,0286;0;0,0989;0;0;0;0,0229;0;0;0
"402";0,0716;0;0,0282;0;0,1083;0;0;0;0,0212;0;0;0
"403";0,0744;0;0,0282;0;0,1083;0;0;0;0,0207;0;0;0
"404";0,0083;0;0,0282;0;0,0141;0;0;0;0,0311;0;0;0
"405";0,0083;0;0,0281;0;0,0094;0;0;0;0,0308;0;0;0
"406";0,0606;0;0,0281;0;0,0754;0;0;0;0,022;0;0;0
"407";0,0165;0;0,0281;0;0,0236;0;0,0389;0;0,0293;0;0,9852;1
"408";0,0937;0;0,0271;0;0,1554;0;0;0;0,0186;0;0;0
"409";0,0275;0;0,027;0;0,0471;0;0,0232;0;0,0263;0;0;0
"410";0,0799;0;0,0268;0;0,0754;0;0;0;0,0193;0;0;0
"411";0,0358;0;0,0266;0;0,0471;0;0;0;0,0246;0;0,4926;0
"412";0,0055;0;0,0264;0;0,0047;0;0;0;0,0296;0;0;0
"413";0,0248;0;0,0262;0;0,0424;0;0;0;0,0249;0;0;0
"414";0,0579;0;0,0255;0;0,0707;0;0;0;0,0202;0;0;0
"415";0,0331;0;0,0255;0;0,0518;0;0;0;0,023;0;0;0
"416";0,0468;0;0,0254;0;0,0518;0;0;0;0,0212;0;0;0
"417";0,0579;0;0,0252;0;0,0707;0;0;0;0,0198;0;0,9852;1
"418";0,011;0;0,0252;0;0,0188;0;0;0;0,0266;0;0;0
"419";0,0193;0;0,0251;0;0,0283;0;0;0;0,0251;0;0;0
"420";0,0138;0;0,0246;0;0,0236;0;0;0;0,0258;0;0;0
"421";0,0634;0;0,0245;0;0,0895;0;0;0;0,0184;0;0;0
"422";0,0386;0;0,0245;0;0,0471;0;0;0;0,0212;0;0;0
"423";0,0275;0;0,0244;0;0,0471;0;0;0;0,0253;0;0;0
"424";0,0689;0;0,0243;0;0,0989;0;0;0;0,0175;0;0,4926;0
"425";0,0248;0;0,0243;0;0,0377;0;0,0303;0;0,0233;0;0;0
"426";0,0028;0;0,0241;0;0,0047;0;0;0;0,0282;0;0;0
"427";0,0468;0;0,0233;0;0,0707;0;0,0218;0;0,0188;0;0,4926;0
"428";0,0193;0;0,0232;0;0,0283;0;0,0164;0;0,0224;0;0;0
"429";0,0248;0;0,023;0;0,0283;0;0,0306;0;0,0217;0;0,9852;1
"430";0,0964;0;0,023;0;0,1225;0;0,0157;0;0,0145;0;0;0
"431";0,0138;0;0,0229;0;0,0188;0;0;0;0,0237;0;0;0
"432";0,0083;0;0,0228;0;0,0141;0;0,0234;0;0,0253;0;0;0
"433";0,0496;0;0,0228;0;0,0754;0;0,0179;0;0,0183;0;0;0
"434";0,0413;0;0,0227;0;0,0612;0;0,0245;0;0,0207;0;0;0
"435";0,0716;0;0,0227;0;0,1178;0;0;0;0,0159;0;0;0
"436";0,0661;0;0,0227;0;0,0942;0;0,0664;0;0,0164;0;0;0
"437";0,0496;0;0,0225;0;0,0801;0;0,0153;0;0,0177;0;0,4926;0
"438";0,0055;0;0,0224;0;0,0094;0;0;0;0,025;0;0;0
"439";0,0716;0;0,0224;0;0,113;0;0,0132;0;0,0155;0;0,4926;0
"440";0,0413;0;0,0222;0;0,0612;0;0;0;0,0201;0;0,4926;0
"441";0,0165;0;0,022;0;0,0283;0;0,0145;0;0,0233;0;0;0
"442";0,0468;0;0,0218;0;0,0801;0;0;0;0,0175;0;0;0
"443";0,0579;0;0,0218;0;0,0895;0;0;0;0,0179;0;0;0
"444";0,0248;0;0,0216;0;0,033;0;0,0231;0;0,0194;0;0,4926;0
"445";0,0028;0;0,0212;0;0,0047;0;0;0;0,0247;0;0;0
"446";0,0083;0;0,0212;0;0,0141;0;0;0;0,0224;0;0;0
"447";0,0028;0;0,0212;0;0,0047;0;0;0;0,0246;0;0;0
"448";0,011;0;0,0212;0;0,0141;0;0;0;0,0219;0;0;0
"449";0,0331;0;0,021;0;0,0283;0;0;0;0,0176;0;0,4926;0
"450";0,1185;0;0,021;0;0,1837;0;0;0;0,0114;0;0;0
"451";0,0689;0;0,021;0;0,1083;0;0,0138;0;0,0149;0;0,4926;0
"452";0,0165;0;0,0209;0;0,0283;0;0;0;0,0202;0;0;0
"453";0,124;0;0,0208;0;0,1884;0;0;0;0,0115;0;0;0
"454";0,0083;0;0,0208;0;0,0141;0;0,0246;0;0,0221;0;0;0
"455";0,0358;0;0,0206;0;0,0612;0;0;0;0,0178;0;0;0
"456";0,0248;0;0,0206;0;0,0377;0;0,0229;0;0,0191;0;0;0
"457";0,0275;0;0,0204;0;0,0471;0;0;0;0,0184;0;0;0
"458";0,0165;0;0,0204;0;0,0283;0;0,0235;0;0,02;0;0,4926;0
"459";0,0248;0;0,0204;0;0,0424;0;0;0;0,0184;0;0;0
"460";0,0028;0;0,0203;0;0,0047;0;0;0;0,0235;0;0;0
"461";0,022;0;0,0203;0;0,0236;0;0,0211;0;0,0188;0;0;0
"462";0,0606;0;0,0202;0;0,0565;0;0;0;0,0145;0;0;0
"463";0,011;0;0,0202;0;0,0094;0;0;0;0,0206;0;0;0
"464";0,0138;0;0,0201;0;0,0236;0;0,0413;0;0,0206;0;0,9852;1
"465";0,0496;0;0,0199;0;0,0801;0;0;0;0,0154;0;0;0
"466";0,0275;0;0,0198;0;0,0471;0;0;0;0,0177;0;0;0
"467";0,0193;0;0,0197;0;0,033;0;0,018;0;0,0189;0;0;0
"468";0,0275;0;0,0196;0;0,0377;0;0;0;0,0175;0;0;0
"469";0,0303;0;0,0195;0;0,0471;0;0;0;0,0172;0;0;0
"470";0,0579;0;0,0192;0;0,0801;0;0,014;0;0,0139;0;0,4926;0
"471";0,0551;0;0,0189;0;0,0895;0;0;0;0,0134;0;0;0
"472";0,0138;0;0,0189;0;0,0141;0;0,0232;0;0,0196;0;0;0
"473";0,0055;0;0,0187;0;0,0094;0;0;0;0,021;0;0;0
"474";0,0083;0;0,0186;0;0,0141;0;0;0;0,0196;0;0;0
"475";0,011;0;0,0186;0;0,0188;0;0;0;0,0195;0;0;0
"476";0,0138;0;0,0184;0;0,0236;0;0;0;0,0184;0;0;0
"477";0,0138;0;0,0183;0;0,0236;0;0;0;0,0181;0;0;0
"478";0,0523;0;0,0182;0;0,0801;0;0;0;0,0138;0;0,4926;0
"479";0,0248;0;0,0181;0;0,033;0;0;0;0,0163;0;0;0
"480";0,0826;0;0,018;0;0,1036;0;0;0;0,0109;0;0;0
"481";0,022;0;0,0179;0;0,033;0;0;0;0,0166;0;0,4926;0
"482";0,0413;0;0,0177;0;0,0518;0;0;0;0,0135;0;0;0
"483";0,0606;0;0,0175;0;0,1036;0;0;0;0,0118;0;0;0
"484";0,0689;0;0,0175;0;0,113;0;0;0;0,0114;0;0;0
"485";0,0551;0;0,0174;0;0,0754;0;0;0;0,0119;0;0;0
"486";0,022;0;0,0174;0;0,0377;0;0,0184;0;0,0161;0;0;0
"487";0,0248;0;0,0172;0;0,0424;0;0;0;0,0153;0;0,4926;0
"488";0,0358;0;0,0171;0;0,0471;0;0;0;0,0147;0;0;0
"489";0,0496;0;0,017;0;0,0754;0;0;0;0,0122;0;0,4926;0
"490";0,0055;0;0,017;0;0,0047;0;0,042;0;0,0189;0;0;0
"491";0,0055;0;0,0169;0;0,0094;0;0,0214;0;0,0182;0;0;0
"492";0,0275;0;0,0169;0;0,0471;0;0;0;0,0147;0;0;0
"493";0,0661;0;0,0164;0;0,0848;0;0;0;0,0107;0;0,4926;0
"494";0,0441;0;0,0164;0;0,0659;0;0;0;0,0124;0;0;0
"495";0,0441;0;0,0163;0;0,0659;0;0;0;0,0127;0;0;0
"496";0,0055;0;0,0163;0;0,0094;0;0,0173;0;0,0183;0;0;0
"497";0,0248;0;0,0162;0;0,0377;0;0;0;0,0147;0;0;0
"498";0,022;0;0,0162;0;0,0283;0;0;0;0,0146;0;0;0
"499";0,0028;0;0,0162;0;0,0047;0;0;0;0,0184;0;0;0
"500";0,0523;0;0,0161;0;0,0707;0;0,0095;0;0,0114;0;0;0
"501";0,0193;0;0,0161;0;0,0236;0;0;0;0,0146;0;0;0
"502";0,0303;0;0,016;0;0,0424;0;0,0178;0;0,0131;0;0,4926;0
"503";0,0413;0;0,016;0;0,0612;0;0;0;0,0118;0;0;0
"504";0,0193;0;0,016;0;0,0283;0;0,0156;0;0,0153;0;0;0
"505";0,0055;0;0,0158;0;0,0094;0;0;0;0,0168;0;0;0
"506";0,0441;0;0,0157;0;0,0188;0;0;0;0,0115;0;0;0
"507";0,022;0;0,0156;0;0,0377;0;0,0339;0;0,0146;0;0;0
"508";0,011;0;0,0154;0;0,0094;0;0,0212;0;0,0157;0;0;0
"509";0,0055;0;0,0154;0;0,0094;0;0;0;0,0164;0;0;0
"510";0,0386;0;0,0154;0;0,0612;0;0;0;0,0117;0;0;0
"511";0,0055;0;0,0153;0;0,0094;0;0;0;0,0164;0;0;0
"512";0,0028;0;0,0153;0;0,0047;0;0;0;0,0174;0;0;0
"513";0,0165;0;0,0153;0;0,0141;0;0;0;0,0142;0;0;0
"514";0,0028;0;0,0152;0;0,0047;0;0,0278;0;0,0172;0;0;0
"515";0,022;0;0,0151;0;0,0283;0;0,0155;0;0,0135;0;0;0
"516";0,0083;0;0,0147;0;0,0141;0;0,0234;0;0,0156;0;0,4926;0
"517";0,0358;0;0,0146;0;0,0612;0;0,039;0;0,0114;0;0;0
"518";0,0331;0;0,0145;0;0,0518;0;0;0;0,0114;0;0;0
"519";0,0441;0;0,0145;0;0,0518;0;0;0;0,0104;0;0;0
"520";0,011;0;0,0145;0;0,0094;0;0,0129;0;0,0146;0;0;0
"521";0,0606;0;0,0141;0;0,0989;0;0;0;0,0087;0;0;0
"522";0,0138;0;0,0139;0;0,0236;0;0;0;0,0133;0;0,4926;0
"523";0,0606;0;0,0139;0;0,0801;0;0;0;0,0089;0;0;0
"524";0,0413;0;0,0138;0;0,0565;0;0;0;0,0097;0;0;0
"525";0,0358;0;0,0136;0;0,0471;0;0;0;0,0101;0;0;0
"526";0,011;0;0,0136;0;0,0188;0;0;0;0,0137;0;0;0
"527";0,0193;0;0,0136;0;0,033;0;0;0;0,0119;0;0;0
"528";0,0165;0;0,0135;0;0,0188;0;0,0474;0;0,0121;0;0;0
"529";0,011;0;0,0135;0;0,0188;0;0,0502;0;0,0132;0;0;0
"530";0,0193;0;0,0134;0;0,0283;0;0,0091;0;0,0119;0;0,9852;1
"531";0,0468;0;0,0134;0;0,0801;0;0;0;0,009;0;0;0
"532";0,0165;0;0,0134;0;0,0236;0;0,0105;0;0,0124;0;0,4926;0
"533";0,022;0;0,0132;0;0,033;0;0;0;0,011;0;0;0
"534";0,022;0;0,0132;0;0,0283;0;0;0;0,0118;0;0;0
"535";0,0386;0;0,0132;0;0,0612;0;0;0;0,0099;0;0;0
"536";0,0331;0;0,0132;0;0,033;0;0;0;0,01;0;0;0
"537";0,0165;0;0,0131;0;0,0188;0;0;0;0,0122;0;0;0
"538";0,0468;0;0,0131;0;0,0754;0;0,0094;0;0,0091;0;0;0
"539";0,022;0;0,0131;0;0,033;0;0,0125;0;0,0116;0;0,4926;0
"540";0,011;0;0,013;0;0,0188;0;0,0253;0;0,0129;0;0;0
"541";0,0413;0;0,0128;0;0,0707;0;0,0067;0;0,0088;0;0,4926;0
"542";0,0634;0;0,0128;0;0,1036;0;0;0;0,0074;0;0,4926;0
"543";0,0193;0;0,0128;0;0,033;0;0,0116;0;0,0109;0;0,4926;0
"544";0,0579;0;0,0128;0;0,0989;0;0;0;0,0077;0;0;0
"545";0,011;0;0,0126;0;0,0188;0;0;0;0,0124;0;0,4926;0
"546";0,0303;0;0,0126;0;0,0518;0;0,0086;0;0,0096;0;0;0
"547";0,0468;0;0,0126;0;0,0707;0;0;0;0,0083;0;0;0
"548";0,0634;0;0,0125;0;0,1083;0;0,0067;0;0,0071;0;0,4926;0
"549";0,0055;0;0,0124;0;0,0094;0;0;0;0,0135;0;0;0
"550";0,0028;0;0,0123;0;0,0047;0;0;0;0,0137;0;0;0
"551";0,0083;0;0,0123;0;0,0141;0;0;0;0,0127;0;0;0
"552";0,0138;0;0,0122;0;0,0236;0;0;0;0,0119;0;0;0
"553";0,0083;0;0,0122;0;0,0141;0;0;0;0,0121;0;0;0
"554";0,0138;0;0,0119;0;0,0188;0;0;0;0,0114;0;0;0
"555";0,0055;0;0,0118;0;0,0047;0;0;0;0,0124;0;0;0
"556";0,0358;0;0,0115;0;0,0612;0;0;0;0,0079;0;0;0
"557";0,0193;0;0,0115;0;0,033;0;0;0;0,0095;0;0;0
"558";0,0083;0;0,0114;0;0,0141;0;0,0114;0;0,011;0;0;0
"559";0,011;0;0,0111;0;0,0141;0;0,0075;0;0,0108;0;0;0
"560";0,0165;0;0,011;0;0,0236;0;0,0107;0;0,0099;0;0;0
"561";0,0248;0;0,011;0;0,0377;0;0,0136;0;0,0087;0;0,4926;0
"562";0,0331;0;0,011;0;0,0565;0;0;0;0,0076;0;0,4926;0
"563";0,022;0;0,0108;0;0,0377;0;0;0;0,0087;0;0,4926;0
"564";0,0331;0;0,0108;0;0,0471;0;0;0;0,0074;0;0;0
"565";0,0303;0;0,0104;0;0,0518;0;0;0;0,0075;0;0;0
"566";0,0413;0;0,0104;0;0,0612;0;0,0069;0;0,0068;0;0;0
"567";0,0193;0;0,0104;0;0,0236;0;0;0;0,0084;0;0;0
"568";0,0165;0;0,0103;0;0,0236;0;0,0088;0;0,0089;0;0;0
"569";0,0193;0;0,0103;0;0,033;0;0,0087;0;0,0089;0;0;0
"570";0,0468;0;0,0101;0;0,0801;0;0;0;0,006;0;0;0
"571";0,0138;0;0,01;0;0,0236;0;0;0;0,0089;0;0,4926;0
"572";0,0496;0;0,0098;0;0,0518;0;0;0;0,0059;0;0;0
"573";0,011;0;0,0097;0;0,0188;0;0,0098;0;0,0089;0;0;0
"574";0,0055;0;0,0097;0;0,0094;0;0,0132;0;0,0099;0;0,9852;1
"575";0,0165;0;0,0094;0;0,0283;0;0;0;0,0079;0;0;0
"576";0,0413;0;0,0094;0;0,033;0;0;0;0,0057;0;0;0
"577";0,0275;0;0,0093;0;0,0377;0;0,0054;0;0,0067;0;0;0
"578";0,0165;0;0,0091;0;0,0283;0;0;0;0,0074;0;0;0
"579";0,0138;0;0,0091;0;0,0236;0;0,0135;0;0,0076;0;0,4926;0
"580";0,0083;0;0,0091;0;0,0141;0;0;0;0,0087;0;0;0
"581";0,0083;0;0,0089;0;0,0141;0;0;0;0,0089;0;0;0
"582";0,0331;0;0,0088;0;0,0471;0;0,0126;0;0,0057;0;0;0
"583";0,0083;0;0,0084;0;0,0141;0;0,0083;0;0,0082;0;0;0
"584";0,0138;0;0,0084;0;0,0236;0;0;0;0,0073;0;0;0
"585";0,0193;0;0,0084;0;0,0283;0;0,0054;0;0,0064;0;0,4926;0
"586";0,0083;0;0,0082;0;0,0094;0;0,009;0;0,0075;0;0,4926;0
"587";0,0165;0;0,0081;0;0,0283;0;0,0056;0;0,0064;0;0,4926;0
"588";0,0248;0;0,0081;0;0,033;0;0,0042;0;0,0057;0;0;0
"589";0,0083;0;0,008;0;0,0141;0;0,0069;0;0,0076;0;0;0
"590";0,0275;0;0,0079;0;0,0471;0;0;0;0,0054;0;0;0
"591";0,0165;0;0,0078;0;0,0188;0;0,0048;0;0,0061;0;0;0
"592";0,0275;0;0,0078;0;0,0424;0;0;0;0,0053;0;0;0
"593";0,0248;0;0,0078;0;0,0236;0;0;0;0,0055;0;0;0
"594";0,0165;0;0,0078;0;0,0236;0;0;0;0,0063;0;0;0
"595";0,0138;0;0,0077;0;0,0236;0;0,0139;0;0,0064;0;0;0
"596";0,0028;0;0,0077;0;0,0047;0;0;0;0,0082;0;0;0
"597";0,0248;0;0,0077;0;0,0424;0;0;0;0,0053;0;0;0
"598";0,0165;0;0,0077;0;0,0283;0;0,0052;0;0,0063;0;0,4926;0
"599";0,022;0;0,0076;0;0,033;0;0;0;0,0054;0;0,4926;0
"600";0,0055;0;0,0076;0;0,0094;0;0,0075;0;0,0076;0;0;0
"601";0,0165;0;0,0076;0;0,0188;0;0;0;0,0058;0;0;0
"602";0,0055;0;0,0075;0;0,0094;0;0;0;0,0073;0;0;0
"603";0,0028;0;0,0074;0;0,0047;0;0;0;0,0079;0;0;0
"604";0,0138;0;0,0074;0;0,0094;0;0,0074;0;0,006;0;0;0
"605";0,0055;0;0,0074;0;0,0094;0;0,0078;0;0,0074;0;0;0
"606";0,0248;0;0,0073;0;0,033;0;0;0;0,0051;0;0,4926;0
"607";0,0386;0;0,0073;0;0,0518;0;0;0;0,004;0;0;0
"608";0,0165;0;0,0071;0;0,0236;0;0;0;0,0054;0;0;0
"609";0,011;0;0,0069;0;0,0094;0;0;0;0,006;0;0;0
"610";0,0193;0;0,0068;0;0,033;0;0,0044;0;0,005;0;0;0
"611";0,0055;0;0,0066;0;0,0094;0;0;0;0,0062;0;0;0
"612";0,0193;0;0,0066;0;0,033;0;0;0;0,0048;0;0,4926;0
"613";0,011;0;0,0065;0;0,0188;0;0;0;0,0055;0;0;0
"614";0,022;0;0,0065;0;0,0377;0;0,0034;0;0,0044;0;0;0
"615";0,0138;0;0,0065;0;0,0236;0;0;0;0,0051;0;0;0
"616";0,0138;0;0,0065;0;0,0188;0;0;0;0,005;0;0;0
"617";0,011;0;0,0064;0;0,0094;0;0;0;0,0057;0;0;0
"618";0,0331;0;0,0064;0;0,0518;0;0,004;0;0,0036;0;0,4926;0
"619";0,011;0;0,0063;0;0,0141;0;0;0;0,0052;0;0;0
"620";0,0165;0;0,0063;0;0,0283;0;0;0;0,005;0;0;0
"621";0,0193;0;0,0063;0;0,033;0;0;0;0,0044;0;0;0
"622";0,022;0;0,0063;0;0,0377;0;0;0;0,0043;0;0;0
"623";0,011;0;0,0062;0;0,0094;0;0;0;0,0051;0;0;0
"624";0,0248;0;0,0062;0;0,0424;0;0;0;0,0041;0;0,4926;0
"625";0,022;0;0,0062;0;0,0377;0;0;0;0,0041;0;0,4926;0
"626";0,0138;0;0,0062;0;0,0236;0;0;0;0,0049;0;0,4926;0
"627";0,0138;0;0,0061;0;0,0236;0;0;0;0,0048;0;0,4926;0
"628";0,0165;0;0,0061;0;0,0283;0;0;0;0,0046;0;0;0
"629";0,0193;0;0,0061;0;0,0283;0;0,0059;0;0,0043;0;0;0
"630";0,0028;0;0,0061;0;0,0047;0;0,0066;0;0,0063;0;0,4926;0
"631";0,0055;0;0,006;0;0,0094;0;0,0026;0;0,0055;0;0;0
"632";0,0083;0;0,006;0;0,0141;0;0;0;0,0051;0;0;0
"633";0,0165;0;0,0059;0;0,0283;0;0;0;0,0043;0;0;0
"634";0,0028;0;0,0059;0;0,0047;0;0;0;0,006;0;0;0
"635";0,0028;0;0,0058;0;0,0047;0;0;0;0,006;0;0;0
"636";0,0138;0;0,0058;0;0,0141;0;0;0;0,0043;0;0;0
"637";0,011;0;0,0058;0;0,0188;0;0;0;0,0051;0;0;0
"638";0,0028;0;0,0057;0;0,0047;0;0;0;0,0059;0;0;0
"639";0,0028;0;0,0057;0;0,0047;0;0;0;0,0058;0;0;0
"640";0,0083;0;0,0057;0;0,0141;0;0;0;0,0048;0;0;0
"641";0,0055;0;0,0056;0;0,0094;0;0,0038;0;0,0054;0;0,4926;0
"642";0,0303;0;0,0056;0;0,0471;0;0,0042;0;0,0031;0;0;0
"643";0,0055;0;0,0056;0;0,0094;0;0;0;0,0051;0;0;0
"644";0,0138;0;0,0056;0;0,0236;0;0;0;0,0042;0;0;0
"645";0,0055;0;0,0055;0;0,0094;0;0;0;0,0053;0;0;0
"646";0,0138;0;0,0055;0;0,0236;0;0,0046;0;0,0042;0;0;0
"647";0,0028;0;0,0055;0;0,0047;0;0;0;0,0056;0;0;0
"648";0,011;0;0,0054;0;0,0188;0;0;0;0,0042;0;0;0
"649";0,011;0;0,0052;0;0,0141;0;0;0;0,004;0;0;0
"650";0,0083;0;0,0051;0;0,0141;0;0,0096;0;0,0042;0;0;0
"651";0,0028;0;0,005;0;0,0047;0;0,006;0;0,005;0;0;0
"652";0,0165;0;0,005;0;0,0236;0;0;0;0,0034;0;0;0
"653";0,0028;0;0,0049;0;0,0047;0;0;0;0,0049;0;0;0
"654";0,0055;0;0,0049;0;0,0094;0;0;0;0,0044;0;0;0
"655";0,022;0;0,0049;0;0,033;0;0;0;0,0029;0;0;0
"656";0,0193;0;0,0048;0;0,033;0;0,0028;0;0,003;0;0;0
"657";0,0028;0;0,0047;0;0,0047;0;0;0;0,0048;0;0;0
"658";0,0083;0;0,0047;0;0,0141;0;0;0;0,0038;0;0;0
"659";0,0055;0;0,0047;0;0,0094;0;0;0;0,0042;0;0;0
"660";0,0138;0;0,0047;0;0,0236;0;0;0;0,0034;0;0;0
"661";0,0165;0;0,0047;0;0,0188;0;0;0;0,0031;0;0;0
"662";0,022;0;0,0047;0;0,0377;0;0,0023;0;0,0027;0;0,4926;0
"663";0,022;0;0,0046;0;0,0377;0;0,0026;0;0,0027;0;0;0
"664";0,0275;0;0,0046;0;0,0471;0;0;0;0,0024;0;0;0
"665";0,011;0;0,0046;0;0,0047;0;0;0;0,0036;0;0;0
"666";0,0055;0;0,0046;0;0,0094;0;0,0022;0;0,0041;0;0;0
"667";0,0083;0;0,0045;0;0,0141;0;0;0;0,0036;0;0,4926;0
"668";0,0055;0;0,0045;0;0,0094;0;0;0;0,0042;0;0;0
"669";0,0055;0;0,0045;0;0,0094;0;0;0;0,004;0;0;0
"670";0,011;0;0,0045;0;0,0188;0;0,0035;0;0,0033;0;0,4926;0
"671";0,0165;0;0,0043;0;0,0236;0;0;0;0,0027;0;0;0
"672";0,011;0;0,0043;0;0,0188;0;0;0;0,0032;0;0;0
"673";0,0138;0;0,0043;0;0,0236;0;0;0;0,0033;0;0;0
"674";0,0193;0;0,0043;0;0,0188;0;0;0;0,0026;0;0;0
"675";0,011;0;0,0042;0;0,0094;0;0;0;0,0031;0;0;0
"676";0,0083;0;0,0042;0;0,0141;0;0;0;0,0033;0;0;0
"677";0,0055;0;0,0042;0;0,0094;0;0;0;0,0036;0;0;0
"678";0,0138;0;0,0042;0;0,0236;0;0,0029;0;0,0029;0;0,4926;0
"679";0,0083;0;0,0041;0;0,0141;0;0;0;0,0032;0;0;0
"680";0,0055;0;0,004;0;0,0094;0;0;0;0,0034;0;0;0
"681";0,0083;0;0,004;0;0,0141;0;0;0;0,0032;0;0;0
"682";0,0055;0;0,0039;0;0,0094;0;0;0;0,0035;0;0;0
"683";0,0138;0;0,0039;0;0,0188;0;0,0029;0;0,0026;0;0;0
"684";0,0055;0;0,0039;0;0,0094;0;0;0;0,0034;0;0;0
"685";0,011;0;0,0038;0;0,0141;0;0;0;0,0027;0;0;0
"686";0,0083;0;0,0036;0;0,0141;0;0;0;0,0027;0;0;0
"687";0,0028;0;0,0035;0;0,0047;0;0;0;0,0034;0;0;0
"688";0,0055;0;0,0035;0;0,0047;0;0;0;0,003;0;0;0
"689";0,011;0;0,0035;0;0,0188;0;0,0034;0;0,0025;0;0;0
"690";0,0055;0;0,0035;0;0,0094;0;0;0;0,0029;0;0;0
"691";0,022;0;0,0035;0;0,0377;0;0;0;0,0017;0;0;0
"692";0,0055;0;0,0034;0;0,0094;0;0;0;0,0029;0;0;0
"693";0,0138;0;0,0034;0;0,0236;0;0;0;0,0021;0;0;0
"694";0,0028;0;0,0033;0;0,0047;0;0;0;0,0032;0;0;0
"695";0,0083;0;0,0033;0;0,0141;0;0;0;0,0025;0;0;0
"696";0,0028;0;0,0033;0;0,0047;0;0;0;0,0031;0;0;0
"697";0,0138;0;0,0033;0;0,0094;0;0;0;0,002;0;0;0
"698";0,011;0;0,0033;0;0,0188;0;0;0;0,0023;0;0;0
"699";0,011;0;0,0032;0;0,0094;0;0;0;0,0022;0;0;0
"700";0,0055;0;0,0032;0;0,0094;0;0;0;0,0026;0;0;0
"701";0,0083;0;0,0032;0;0,0141;0;0;0;0,0024;0;0;0
"702";0,0138;0;0,0032;0;0,0141;0;0;0;0,002;0;0;0
"703";0,011;0;0,0032;0;0,0188;0;0;0;0,0021;0;0;0
"704";0,011;0;0,0031;0;0,0188;0;0;0;0,002;0;0;0
"705";0,0083;0;0,0031;0;0,0094;0;0;0;0,0023;0;0;0
"706";0,011;0;0,0031;0;0,0141;0;0;0;0,002;0;0;0
"707";0,0055;0;0,0031;0;0,0094;0;0;0;0,0026;0;0;0
"708";0,011;0;0,0031;0;0,0141;0;0;0;0,0021;0;0;0
"709";0,0055;0;0,003;0;0,0094;0;0;0;0,0024;0;0;0
"710";0,0083;0;0,003;0;0,0141;0;0;0;0,0023;0;0;0
"711";0,0055;0;0,003;0;0,0094;0;0;0;0,0025;0;0;0
"712";0,0083;0;0,003;0;0,0141;0;0;0;0,0022;0;0;0
"713";0,0055;0;0,003;0;0,0094;0;0;0;0,0023;0;0;0
"714";0,0055;0;0,003;0;0,0094;0;0;0;0,0024;0;0;0
"715";0,0138;0;0,0029;0;0,0141;0;0;0;0,0017;0;0;0
"716";0,0055;0;0,0029;0;0,0094;0;0;0;0,0023;0;0;0
"717";0,0028;0;0,0029;0;0,0047;0;0;0;0,0027;0;0;0
"718";0,0138;0;0,0029;0;0,0236;0;0;0;0,0017;0;0;0
"719";0,0083;0;0,0029;0;0,0141;0;0;0;0,0021;0;0;0
"720";0,0055;0;0,0028;0;0,0094;0;0;0;0,0022;0;0;0
"721";0,0028;0;0,0028;0;0,0047;0;0;0;0,0026;0;0;0
"722";0,0055;0;0,0028;0;0,0094;0;0;0;0,0022;0;0;0
"723";0,0028;0;0,0027;0;0,0047;0;0,0024;0;0,0025;0;0;0
"724";0,0138;0;0,0027;0;0,0236;0;0,0021;0;0,0016;0;0,4926;0
"725";0,0028;0;0,0027;0;0,0047;0;0,0014;0;0,0025;0;0,4926;0
"726";0,011;0;0,0027;0;0,0188;0;0,0021;0;0,0016;0;0;0
"727";0,0028;0;0,0027;0;0,0047;0;0;0;0,0024;0;0;0
"728";0,0028;0;0,0027;0;0,0047;0;0;0;0,0024;0;0;0
"729";0,0028;0;0,0027;0;0,0047;0;0;0;0,0024;0;0;0
"730";0,011;0;0,0027;0;0,0094;0;0;0;0,0016;0;0;0
"731";0,0055;0;0,0026;0;0,0094;0;0,0017;0;0,002;0;0;0
"732";0,0055;0;0,0026;0;0,0094;0;0;0;0,002;0;0;0
"733";0,0138;0;0,0026;0;0,0236;0;0;0;0,0014;0;0;0
"734";0,0028;0;0,0026;0;0,0047;0;0;0;0,0023;0;0;0
"735";0,0083;0;0,0026;0;0,0141;0;0,0015;0;0,0017;0;0;0
"736";0,0083;0;0,0026;0;0,0141;0;0;0;0,0017;0;0;0
"737";0,0138;0;0,0025;0;0,0236;0;0,0017;0;0,0014;0;0;0
"738";0,011;0;0,0025;0;0,0188;0;0;0;0,0015;0;0;0
"739";0,011;0;0,0025;0;0,0188;0;0;0;0,0015;0;0;0
"740";0,0028;0;0,0025;0;0,0047;0;0,0017;0;0,0022;0;0;0
"741";0,011;0;0,0024;0;0,0141;0;0,0016;0;0,0014;0;0;0
"742";0,011;0;0,0024;0;0,0047;0;0;0;0,0014;0;0;0
"743";0,0138;0;0,0024;0;0,0236;0;0;0;0,0013;0;0;0
"744";0,0028;0;0,0024;0;0,0047;0;0,0047;0;0,0021;0;0;0
"745";0,0083;0;0,0024;0;0,0141;0;0;0;0,0016;0;0;0
"746";0,0083;0;0,0024;0;0,0141;0;0,0013;0;0,0015;0;0;0
"747";0,0055;0;0,0023;0;0,0094;0;0;0;0,0018;0;0;0
"748";0,0055;0;0,0022;0;0,0047;0;0;0;0,0017;0;0;0
"749";0,0028;0;0,0022;0;0,0047;0;0;0;0,002;0;0;0
"750";0,0083;0;0,0022;0;0,0141;0;0,0018;0;0,0015;0;0;0
"751";0,0055;0;0,0022;0;0,0094;0;0,0034;0;0,0017;0;0,4926;0
"752";0,0055;0;0,0022;0;0,0094;0;0;0;0,0016;0;0,4926;0
"753";0,0028;0;0,0022;0;0,0047;0;0,0015;0;0,0019;0;0,4926;0
"754";0,0028;0;0,0022;0;0,0047;0;0;0;0,0019;0;0;0
"755";0,0028;0;0,0021;0;0,0047;0;0;0;0,0019;0;0;0
"756";0,0028;0;0,0021;0;0,0047;0;0;0;0,0018;0;0;0
"757";0,0055;0;0,0021;0;0,0094;0;0;0;0,0015;0;0;0
"758";0,0055;0;0,002;0;0,0094;0;0;0;0,0014;0;0;0
"759";0,0028;0;0,002;0;0,0047;0;0;0;0,0017;0;0;0
"760";0,0028;0;0,002;0;0,0047;0;0,0019;0;0,0017;0;0;0
"761";0,0028;0;0,002;0;0,0047;0;0;0;0,0017;0;0;0
"762";0,0055;0;0,0019;0;0,0047;0;0,0022;0;0,0014;0;0;0
"763";0,0055;0;0,0019;0;0,0094;0;0,0011;0;0,0013;0;0,4926;0
"764";0,0028;0;0,0019;0;0,0047;0;0;0;0,0016;0;0;0
"765";0,0028;0;0,0019;0;0,0047;0;0;0;0,0016;0;0;0
"766";0,0055;0;0,0019;0;0,0094;0;0;0;0,0013;0;0;0
"767";0,0055;0;0,0019;0;0,0094;0;0;0;0,0014;0;0;0
"768";0,011;0;0,0019;0;0,0141;0;0;0;0,001;0;0;0
"769";0,0028;0;0,0018;0;0,0047;0;0;0;0,0015;0;0;0
"770";0,0138;0;0,0018;0;0,0188;0;0;0;8e-04;0;0;0
"771";0,0055;0;0,0018;0;0,0094;0;0,0023;0;0,0012;0;0;0
"772";0,0028;0;0,0018;0;0,0047;0;0;0;0,0015;0;0;0
"773";0,0028;0;0,0018;0;0,0047;0;0,0029;0;0,0015;0;0;0
"774";0,0028;0;0,0018;0;0,0047;0;0,0014;0;0,0015;0;0;0
"775";0,0028;0;0,0018;0;0,0047;0;0;0;0,0015;0;0;0
"776";0,0028;0;0,0018;0;0,0047;0;0;0;0,0015;0;0;0
"777";0,0055;0;0,0017;0;0,0094;0;0;0;0,0012;0;0;0
"778";0,0055;0;0,0017;0;0,0094;0;0;0;0,0012;0;0;0
"779";0,0055;0;0,0017;0;0,0094;0;0;0;0,0011;0;0,4926;0
"780";0,0028;0;0,0017;0;0,0047;0;0;0;0,0014;0;0;0
"781";0,0028;0;0,0017;0;0,0047;0;0;0;0,0014;0;0;0
"782";0,0028;0;0,0016;0;0,0047;0;0;0;0,0013;0;0;0
"783";0,0083;0;0,0016;0;0,0141;0;0;0;9e-04;0;0;0
"784";0,0028;0;0,0015;0;0,0047;0;6e-04;0;0,0012;0;0,4926;0
"785";0,0028;0;0,0015;0;0,0047;0;0;0;0,0012;0;0;0
"786";0,0028;0;0,0015;0;0,0047;0;0;0;0,0012;0;0;0
"787";0,0028;0;0,0015;0;0,0047;0;8e-04;0;0,0012;0;0;0
"788";0,0028;0;0,0015;0;0,0047;0;0;0;0,0011;0;0;0
"789";0,0028;0;0,0014;0;0,0047;0;0;0;0,0011;0;0;0
"790";0,0055;0;0,0014;0;0,0094;0;0;0;9e-04;0;0;0
"791";0,0083;0;0,0014;0;0,0094;0;8e-04;0;7e-04;0;0;0
"792";0,0055;0;0,0014;0;0,0094;0;0;0;9e-04;0;0;0
"793";0,0055;0;0,0014;0;0,0047;0;0;0;9e-04;0;0;0
"794";0,0028;0;0,0013;0;0,0047;0;0;0;0,001;0;0;0
"795";0,0055;0;0,0013;0;0,0094;0;0;0;8e-04;0;0;0
"796";0,0055;0;0,0013;0;0,0094;0;0;0;8e-04;0;0;0
"797";0,0028;0;0,0013;0;0,0047;0;0;0;0,001;0;0;0
"798";0,0028;0;0,0013;0;0,0047;0;0;0;0,001;0;0;0
"799";0,0055;0;0,0013;0;0,0094;0;0;0;8e-04;0;0;0
"800";0,0028;0;0,0013;0;0,0047;0;0;0;9e-04;0;0,9852;1
"801";0,0028;0;0,0012;0;0,0047;0;0;0;9e-04;0;0;0
"802";0,0055;0;0,0012;0;0,0094;0;0;0;7e-04;0;0;0
"803";0,0055;0;0,0012;0;0,0094;0;0;0;7e-04;0;0;0
"804";0,0055;0;0,0012;0;0,0094;0;0;0;7e-04;0;0;0
"805";0,0028;0;0,0012;0;0,0047;0;0;0;9e-04;0;0;0
"806";0,0055;0;0,0012;0;0,0094;0;0;0;7e-04;0;0;0
"807";0,0028;0;0,0012;0;0,0047;0;0;0;9e-04;0;0,9852;1
"808";0,0028;0;0,0012;0;0,0047;0;0,0011;0;9e-04;0;0;0
"809";0,0028;0;0,0012;0;0,0047;0;0;0;8e-04;0;0;0
"810";0,0028;0;0,0011;0;0,0047;0;0;0;8e-04;0;0;0
"811";0,0028;0;0,0011;0;0,0047;0;0;0;8e-04;0;0;0
"812";0,0055;0;0,0011;0;0,0094;0;6e-04;0;6e-04;0;0;0
"813";0,0083;0;0,0011;0;0,0141;0;0;0;5e-04;0;0;0
"814";0,0055;0;0,001;0;0,0094;0;0;0;6e-04;0;0;0
"815";0,0055;0;0,001;0;0,0094;0;0;0;6e-04;0;0;0
"816";0,0083;0;0,001;0;0,0141;0;0;0;5e-04;0;0;0
"817";0,0028;0;0,001;0;0,0047;0;0;0;7e-04;0;0;0
"818";0,0055;0;0,001;0;0,0094;0;4e-04;0;6e-04;0;0;0
"819";0,0028;0;0,001;0;0,0047;0;8e-04;0;7e-04;0;0,4926;0
"820";0,0028;0;0,001;0;0,0047;0;0;0;7e-04;0;0;0
"821";0,0028;0;0,001;0;0,0047;0;0;0;7e-04;0;0;0
"822";0,0055;0;0,001;0;0,0094;0;0;0;5e-04;0;0;0
"823";0,0028;0;0,001;0;0,0047;0;9e-04;0;7e-04;0;0;0
"824";0,0028;0;9e-04;0;0,0047;0;0;0;7e-04;0;0;0
"825";0,0028;0;9e-04;0;0,0047;0;4e-04;0;6e-04;0;0;0
"826";0,0028;0;9e-04;0;0,0047;0;7e-04;0;6e-04;0;0;0
"827";0,0055;0;9e-04;0;0,0094;0;4e-04;0;5e-04;0;0;0
"828";0,0028;0;9e-04;0;0,0047;0;0;0;6e-04;0;0;0
"829";0,0055;0;9e-04;0;0,0094;0;0;0;5e-04;0;0;0
"830";0,0055;0;9e-04;0;0,0094;0;3e-04;0;5e-04;0;0;0
"831";0,0028;0;9e-04;0;0,0047;0;0;0;6e-04;0;0;0
"832";0,0028;0;9e-04;0;0,0047;0;0;0;6e-04;0;0;0
"833";0,0055;0;9e-04;0;0,0094;0;0;0;4e-04;0;0;0
"834";0,0028;0;9e-04;0;0,0047;0;0;0;6e-04;0;0;0
"835";0,0028;0;9e-04;0;0,0047;0;0;0;6e-04;0;0;0
"836";0,0028;0;9e-04;0;0,0047;0;0;0;6e-04;0;0;0
"837";0,0028;0;8e-04;0;0,0047;0;0;0;5e-04;0;0;0
"838";0,0055;0;8e-04;0;0,0094;0;0;0;4e-04;0;0;0
"839";0,0055;0;8e-04;0;0,0094;0;0;0;4e-04;0;0;0
"840";0,0028;0;8e-04;0;0,0047;0;0;0;5e-04;0;0;0
"841";0,0055;0;8e-04;0;0,0094;0;0;0;4e-04;0;0;0
"842";0,0028;0;7e-04;0;0,0047;0;3e-04;0;5e-04;0;0;0
"843";0,0028;0;7e-04;0;0,0047;0;0;0;5e-04;0;0;0
"844";0,0028;0;7e-04;0;0,0047;0;0;0;5e-04;0;0;0
"845";0,0055;0;7e-04;0;0,0094;0;0;0;3e-04;0;0;0
"846";0,0028;0;7e-04;0;0,0047;0;0;0;4e-04;0;0;0
"847";0,0055;0;7e-04;0;0,0094;0;0;0;3e-04;0;0;0
"848";0,0055;0;7e-04;0;0,0094;0;0;0;3e-04;0;0;0
"849";0,0028;0;7e-04;0;0,0047;0;0;0;4e-04;0;0,4926;0
"850";0,0028;0;6e-04;0;0,0047;0;0;0;4e-04;0;0;0
"851";0,0028;0;6e-04;0;0,0047;0;0;0;4e-04;0;0;0
"852";0,0028;0;6e-04;0;0,0047;0;0;0;4e-04;0;0;0
"853";0,0028;0;6e-04;0;0,0047;0;0;0;4e-04;0;0;0
"854";0,0028;0;6e-04;0;0,0047;0;4e-04;0;3e-04;0;0;0
"855";0,0028;0;6e-04;0;0,0047;0;0;0;3e-04;0;0;0
"856";0,0028;0;6e-04;0;0,0047;0;0;0;3e-04;0;0;0
"857";0,0028;0;5e-04;0;0,0047;0;0;0;3e-04;0;0;0
"858";0,0028;0;5e-04;0;0,0047;0;0;0;3e-04;0;0;0
"859";0,0028;0;5e-04;0;0,0047;0;0;0;3e-04;0;0;0
"860";0,0028;0;5e-04;0;0,0047;0;0;0;3e-04;0;0;0
"861";0,0028;0;5e-04;0;0,0047;0;0;0;3e-04;0;0;0
"862";0,0028;0;5e-04;0;0,0047;0;0;0;3e-04;0;0;0
"863";0,0028;0;5e-04;0;0,0047;0;0;0;3e-04;0;0;0
"864";0,0028;0;5e-04;0;0,0047;0;0;0;2e-04;0;0;0
"865";0,0028;0;5e-04;0;0,0047;0;0;0;2e-04;0;0;0
"866";0,0028;0;5e-04;0;0,0047;0;0;0;2e-04;0;0;0
"867";0,0028;0;5e-04;0;0,0047;0;0;0;2e-04;0;0;0
"868";0,0028;0;4e-04;0;0,0047;0;0;0;2e-04;0;0;0
"869";0,0028;0;4e-04;0;0,0047;0;0;0;2e-04;0;0;0
"870";0,0028;0;4e-04;0;0,0047;0;0;0;2e-04;0;0;0
"871";0,0028;0;4e-04;0;0,0047;0;4e-04;0;2e-04;0;0;0
"872";0,0028;0;4e-04;0;0,0047;0;4e-04;0;2e-04;0;0;0
"873";0,0028;0;4e-04;0;0,0047;0;0;0;2e-04;0;0;0
"874";0,0028;0;4e-04;0;0,0047;0;0;0;2e-04;0;0;0
"875";0,0028;0;4e-04;0;0,0047;0;3e-04;0;2e-04;0;0,4926;0
"876";0,0028;0;4e-04;0;0,0047;0;0;0;2e-04;0;0;0
"877";0,0028;0;4e-04;0;0,0047;0;3e-04;0;2e-04;0;0;0
"878";0,0028;0;4e-04;0;0,0047;0;0;0;2e-04;0;0;0
"879";0,0028;0;4e-04;0;0,0047;0;0;0;2e-04;0;0;0
"880";0,0028;0;4e-04;0;0,0047;0;0;0;2e-04;0;0;0
"881";0,0028;0;4e-04;0;0,0047;0;0;0;2e-04;0;0;0
"882";0,0028;0;4e-04;0;0,0047;0;0;0;2e-04;0;0;0
"883";0,0028;0;4e-04;0;0,0047;0;0;0;2e-04;0;0;0
"884";0,0028;0;4e-04;0;0,0047;0;0;0;2e-04;0;0;0
"885";0,0028;0;4e-04;0;0,0047;0;0;0;2e-04;0;0;0
"886";0,0028;0;4e-04;0;0,0047;0;0;0;2e-04;0;0;0
"887";0,0028;0;4e-04;0;0,0047;0;0;0;2e-04;0;0;0
"888";0,0028;0;4e-04;0;0,0047;0;0;0;2e-04;0;0;0
"889";0,0028;0;4e-04;0;0,0047;0;0;0;2e-04;0;0;0
"890";0,0028;0;4e-04;0;0,0047;0;0;0;2e-04;0;0;0
"891";0,0028;0;4e-04;0;0,0047;0;0;0;2e-04;0;0;0
"892";0,0028;0;4e-04;0;0,0047;0;0;0;2e-04;0;0;0
"893";0,0028;0;4e-04;0;0,0047;0;0;0;2e-04;0;0,4926;0
"894";0,0028;0;3e-04;0;0,0047;0;3e-04;0;2e-04;0;0;0
"895";0,0028;0;3e-04;0;0,0047;0;0;0;2e-04;0;0;0
"896";0,0028;0;3e-04;0;0,0047;0;0;0;2e-04;0;0;0
"897";0,0028;0;3e-04;0;0,0047;0;0;0;2e-04;0;0;0
"898";0,0028;0;3e-04;0;0,0047;0;0;0;2e-04;0;0;0
